Project 2: Data Mining, Classification, Prediction
…
# if your dataset needs tidying, do so here

pockets %>% group_by(brand) %>% summarise(n = n())

## # A tibble: 21 x 2
##    brand                 n
##    <chr>             <int>
##  1 7 for all Mankind     2
##  2 7 for All Mankind     2
##  3 Abercrombie           4
##  4 American Eagle        4
##  5 Arizona               4
##  6 Buckle Black          4
##  7 Calvin Klein          4
##  8 Express               4
##  9 Gap                   4
## 10 Guess                 4
## #  with 11 more rows
…
pockets %>% group_by(menWomen) %>% summarise(n = n())

## # A tibble: 2 x 2
##   menWomen     n
##   <chr>    <int>
## 1 men         40
## 2 women       40

pockets %>% group_by(name) %>% summarise(n = n())

## # A tibble: 70 x 2
##    name                            n
##    <chr>                       <int>
##  1 "121 Slim"                      1
##  2 "363 New Vintage Straight"      1
##  3 "484 Slim"                      1
##  4 "510 Skinny"                    1
##  5 "569 Loose Straight"            1
##  6 "711 Skinny"                    1
##  7 "770 Straight"                  1
##  8 "8\" Tooth Pick"                1
##  9 "Acid Wash Fringe Hem Crop"     1
## 10 "Ava Mid Rise Skinny"           1
## #  with 60 more rows

pockets %>% group_by(fabric) %>% summarise(n = n())

## # A tibble: 43 x 2
##    fabric                                                  n
##    <chr>                                               <int>
##  1 100% cotton                                             7
##  2 100% Cotton                                             1
##  3 45% rayon, 30% cotton, 25% polyester                    1
##  4 51% cotton, 36% rayon, 12% polyester, 1% spandex        1
##  5 53% cotton, 22% polyester, 23% rayan, 2% spandex        1
##  6 55% cotton, 24% rayon, 19% polyester, 2% spandex        1
##  7 55% cotton, 31% polyester, 13% lyocell, 1% elastane     1
##  8 56% cotton, 28% modal, 14% spandex, 2% elastane         1
##  9 60% cotton, 23% viscose, 16% polyester, 1% elastane     1
## 10 62% cotton, 21% rayon, 15% polyester, 2% elastane       1
## #  with 33 more rows
…
3.169406e-26 - 4.51729e-26

## [1] -1.347884e-26

The model does not look like it has a sign of overfitting. The mean squared error from the original regression was a very small number which is a good sign, and when we cross-validated it, the CV MSE was less than the original MSE which is a good sign and means that there was not overfitting. As a result, the linear regression also works for predicting price based on any other variable in the data set.

Python

library(reticulate)
use_python("/usr/bin/python3", required = F)
hi <- "Hello"
pockets

## # A tibble: 80 x 16
##    brand style menWomen name  fabric price maxHeightFront minHeightFront
##    <chr> <chr> <chr>    <chr> <chr>  <dbl>          <dbl>          <dbl>
##  1 Ariz skin women    Fave 78% c  42             14.5           15  
##  2 Ariz stra women    Perf 78% c  42             14.5           14  
##  3 Ralp skin women    Mode 92% c  89.5           13             13.5
##  4 Ralp stra women    Prem 92% c  89.5           13             13.5
##  5 Uniq skin women    Skin 87% c  39.9           13             13  
##  6 Uniq stra women    High 98% c  39.9           15.5           12  
##  7 Calv skin women    Midr 98% c  79.5           12             12  
##  8 Calv stra women    Stra 85% c  69.5           14             11.2
##  9 Lucky skin women    Ava  69% c  99             13             14.5
## 10 Lucky stra women    Swee 96% c  79.5           15             16.5
## #  with 70 more rows, and 8 more variables: rivetHeightFront <dbl>,
## #   maxWidthFront <dbl>, minWidthFront <dbl>, maxHeightBack <dbl>,
## #   minHeightBack <dbl>, maxWidthBack <dbl>, minWidthBack <dbl>, cutout <lgl>
…
